1;Registration;"Password must be 6 symbols long, include 1 uppercase letter and 1 non-letter/digital character";"Press ""Register"", enter email and password for registration.";"Email, Password";Registration complete. User is logged in. ;As expected;OK
2;Login;user registered;"Press Login, enter email and password.";"Login, Password";User is logged in.;As expected;OK
3;Login with FB;User have account on FB;"Press Login, then press ""Login with Facebook"" button, confirm to FB that MVC application can use user's information.";"First time only - button ""Confirm"" on FB form. 2nd time and next - - no input.";User is logged in.;As expected;OK
4;AddressBooks require Authorisation;User must NOT be logged in.;"Press ""AddressBook"" link. ";no;Login form;As expected;OK
5;Main page links;n/a;Press all links on main page;links on main page;redirect to related pages;One link is broken;FAIL
6;Menu links;n/a;Press all links in menu ;"links in menu. All pages use same menu, so 1 check for 1 link is enough.";redirect to related pages;As expected;OK
7;Documentation available;n/a;Go to Documentation page;no;3 links to file download;As expected;OK
8;Credits available;n/a;Go to Contact page;no;Information about author;As expected;OK
9;CRUD is working;User must be logged in;"Go to Address book. Press Create link. Enter data. Press ""Save"" button.";"Name, Last name, phone, Birthday, City, Zip.";Entered data must be displayed in list of all user's contacts at AddressBook page.;As expected;OK
10;Viewing other?s data;User must be logged in;Direct input into browser URL bar;http://dc306.apphb.com/Contacts/Details/1;"""404 - Page not found Error""";Data of other users displayed;FAIL
11;Editing other?s data;User must be logged in;Direct input into browser URL bar;http://dc306.apphb.com/Contacts/Edit/1;"""404 - Page not found Error""";As expected;OK
12;Deleting other?s data;User must be logged in;Direct input into browser URL bar;http://dc306.apphb.com/Contacts/Delete/2;"""404 - Page not found Error""";As expected;OK
13;Date picker is OK;User must be logged in. Javascript enabled.;Go to Address book. Press Create link. Enter data. ;any data;"In the ""Birthday"" field JQuery script shoud display plugin ""Datepicker"" to choose date from calendar.";As expected;OK
14;Pictures in DatePicker are shown;User must be logged in. Javascript enabled.;Go to Address book. Press Create link. Enter data. ;any data;"In the ""Birthday"" field JQuery script shoud display plugin ""Datepicker"" to choose date from calendar. Arrow images in ""Month"" select field are displayed.";As expected;OK
15;Columns in DP are re-arrangeable;User must be logged in. Javascript enabled.;Go to Address book. Drug column titles by mouse.;no;Column titles are re-arrangeable.;As expected;OK
16;Search is working;User must be logged in. Javascript enabled.;"Go to Address book. Start type in ""Search"" field";Letter set which is presented in one of the table field.;Rows which doesn't content search string immediately disappearing.;As expected;OK
17;Pagination is working;User must be logged in. Javascript enabled.;Go to Address book.Create 10 address. ;Data for addresses.;Pagenator plugin should display active link to 2-nd (and more if are any) page(s).;As expected;OK
18;HTML is valid;n/a;Go to https://validator.w3.org;enter application address (dc306.apphb.com);"""Document checking completed. No errors or warnings to show."" message";As expected;OK
19;Mobile ready;Mobile device is used;Go to website;no;"menu should be replaced with Bootstrap's ""burger"" button. All conten is reformated and displayed on screen.";As expected;OK
20;Pictures are optimized;n/a;go to google speed test;enter application address (dc306.apphb.com);"""Images are optimized"" - evaluated by google";Images not optimized;FAIL
